{
	"credit": "Made with Blockbench",
	"texture_size": [64, 64],
	"textures": {
		"0": "./dulichium",
		"particle": "./dulichium"
	},
	"elements": [
		{
			"from": [9.41942, 0, -3.97272],
			"to": [9.41942, 31, 14.52728],
			"rotation": {"angle": -45, "axis": "y", "origin": [6.41942, 11.25, 5.27728]},
			"faces": {
				"north": {"uv": [4.25, 0.5, 13.5, 16], "texture": "#0"},
				"east": {"uv": [4.25, 0.5, 13.5, 16], "texture": "#0"},
				"south": {"uv": [4.25, 0.5, 13.5, 16], "texture": "#0"},
				"west": {"uv": [4.25, 0.5, 13.5, 16], "texture": "#0"},
				"up": {"uv": [4.25, 0.5, 13.5, 16], "texture": "#0"},
				"down": {"uv": [4.25, 0.5, 13.5, 16], "texture": "#0"}
			}
		},
		{
			"from": [-0.70926, -3, 7.3986],
			"to": [17.79074, 28, 7.3986],
			"rotation": {"angle": 0, "axis": "y", "origin": [8.54074, 15.5, 7.3986]},
			"faces": {
				"north": {"uv": [4.25, 0.5, 13.5, 16], "texture": "#0"},
				"east": {"uv": [4.25, 0.5, 13.5, 16], "texture": "#0"},
				"south": {"uv": [4.25, 0.5, 13.5, 16], "texture": "#0"},
				"west": {"uv": [4.25, 0.5, 13.5, 16], "texture": "#0"},
				"up": {"uv": [4.25, 0.5, 13.5, 16], "rotation": 90, "texture": "#0"},
				"down": {"uv": [4.25, 0.5, 13.5, 16], "rotation": 270, "texture": "#0"}
			}
		},
		{
			"from": [-0.70926, 0, 7.3986],
			"to": [17.79074, 31, 7.3986],
			"rotation": {"angle": -45, "axis": "y", "origin": [8.54074, 15.5, 7.3986]},
			"faces": {
				"north": {"uv": [4.25, 0.5, 13.5, 16], "texture": "#0"},
				"east": {"uv": [4.25, 0.5, 13.5, 16], "texture": "#0"},
				"south": {"uv": [4.25, 0.5, 13.5, 16], "texture": "#0"},
				"west": {"uv": [4.25, 0.5, 13.5, 16], "texture": "#0"},
				"up": {"uv": [4.25, 0.5, 13.5, 16], "rotation": 90, "texture": "#0"},
				"down": {"uv": [4.25, 0.5, 13.5, 16], "rotation": 270, "texture": "#0"}
			}
		},
		{
			"from": [7.45926, 0, -1.8514],
			"to": [7.45926, 31, 16.6486],
			"rotation": {"angle": 0, "axis": "y", "origin": [7.45926, 15.5, 7.3986]},
			"faces": {
				"north": {"uv": [13.5, 0.5, 4.25, 16], "texture": "#0"},
				"east": {"uv": [13.5, 0.5, 4.25, 16], "texture": "#0"},
				"south": {"uv": [13.5, 0.5, 4.25, 16], "texture": "#0"},
				"west": {"uv": [13.5, 0.5, 4.25, 16], "texture": "#0"},
				"up": {"uv": [13.5, 0.5, 4.25, 16], "rotation": 180, "texture": "#0"},
				"down": {"uv": [13.5, 0.5, 4.25, 16], "rotation": 180, "texture": "#0"}
			}
		}
	],
	"display": {
		"thirdperson_righthand": {
			"rotation": [90, 0, 0],
			"translation": [-0.25, 0.75, -0.5],
			"scale": [0.2, 0.2, 0.2]
		},
		"thirdperson_lefthand": {
			"rotation": [90, 0, 0],
			"translation": [-0.25, 0.75, -0.5],
			"scale": [0.2, 0.2, 0.2]
		},
		"firstperson_righthand": {
			"rotation": [101, 78, -114],
			"translation": [0.25, -0.25, 1],
			"scale": [0.4, 0.4, 0.4]
		},
		"firstperson_lefthand": {
			"rotation": [101, 78, -114],
			"translation": [0.25, -0.25, 1],
			"scale": [0.4, 0.4, 0.4]
		},
		"ground": {
			"translation": [0, 0.25, 0],
			"scale": [0.2, 0.2, 0.2]
		},
		"gui": {
			"rotation": [20, -140, 0],
			"translation": [-1.75, 0, 0],
			"scale": [0.4, 0.4, 0.4]
		},
		"head": {
			"translation": [0, 0, 1.25]
		},
		"fixed": {
			"rotation": [-90, 10, 0],
			"translation": [0, 0, -15],
			"scale": [2, 2, 2]
		}
	}
}