{
	"credit": "Made with Blockbench",
	"texture_size": [64, 64],
	"textures": {
		"0": "./floating leaves_1",
		"particle": "./floating leaves_1"
	},
	"elements": [
		{
			"from": [4.56002, 31.01, -4.69241],
			"to": [31.56002, 31.01, 21.80759],
			"rotation": {"angle": 0, "axis": "y", "origin": [4.06002, 31, 12.80759]},
			"faces": {
				"north": {"uv": [0.75, 1.25, 14.25, 14.5], "rotation": 180, "texture": "#0"},
				"east": {"uv": [0.75, 1.25, 14.25, 14.5], "rotation": 180, "texture": "#0"},
				"south": {"uv": [0.75, 1.25, 14.25, 14.5], "rotation": 180, "texture": "#0"},
				"west": {"uv": [0.75, 1.25, 14.25, 14.5], "rotation": 180, "texture": "#0"},
				"up": {"uv": [0.75, 1.25, 14.25, 14.5], "rotation": 180, "texture": "#0"},
				"down": {"uv": [0.75, 1.25, 14.25, 14.5], "rotation": 180, "texture": "#0"}
			}
		},
		{
			"from": [-15.04757, 30.999, -13.35633],
			"to": [11.95243, 30.999, 13.14367],
			"rotation": {"angle": -45, "axis": "y", "origin": [8.45243, 30.999, -0.10633]},
			"faces": {
				"north": {"uv": [0.75, 1.25, 14.25, 14.5], "rotation": 180, "texture": "#0"},
				"east": {"uv": [0.75, 1.25, 14.25, 14.5], "rotation": 180, "texture": "#0"},
				"south": {"uv": [0.75, 1.25, 14.25, 14.5], "rotation": 180, "texture": "#0"},
				"west": {"uv": [0.75, 1.25, 14.25, 14.5], "rotation": 180, "texture": "#0"},
				"up": {"uv": [0.75, 1.25, 14.25, 14.5], "rotation": 180, "texture": "#0"},
				"down": {"uv": [0.75, 1.25, 14.25, 14.5], "rotation": 180, "texture": "#0"}
			}
		},
		{
			"from": [-9.96865, 30.998, 4.64293],
			"to": [16.53135, 30.998, 31.64293],
			"rotation": {"angle": -22.5, "axis": "y", "origin": [17.28135, 30.999, 8.14293]},
			"faces": {
				"north": {"uv": [0.75, 1.25, 14.25, 14.5], "rotation": 180, "texture": "#0"},
				"east": {"uv": [0.75, 1.25, 14.25, 14.5], "rotation": 180, "texture": "#0"},
				"south": {"uv": [0.75, 1.25, 14.25, 14.5], "rotation": 180, "texture": "#0"},
				"west": {"uv": [0.75, 1.25, 14.25, 14.5], "rotation": 180, "texture": "#0"},
				"up": {"uv": [0.75, 1.25, 14.25, 14.5], "rotation": 90, "texture": "#0"},
				"down": {"uv": [0.75, 1.25, 14.25, 14.5], "rotation": 270, "texture": "#0"}
			}
		}
	],
	"display": {
		"thirdperson_righthand": {
			"rotation": [38, 0, 0],
			"translation": [0, -3.75, -2],
			"scale": [0.2, 0.2, 0.2]
		},
		"thirdperson_lefthand": {
			"rotation": [38, 0, 0],
			"translation": [0, -3.75, -2],
			"scale": [0.2, 0.2, 0.2]
		},
		"firstperson_righthand": {
			"rotation": [126, 78, -114],
			"translation": [0.25, -5.25, 1],
			"scale": [0.4, 0.4, 0.4]
		},
		"firstperson_lefthand": {
			"rotation": [126, 78, -114],
			"translation": [0.25, -5.25, 1],
			"scale": [0.4, 0.4, 0.4]
		},
		"ground": {
			"translation": [0, -4.5, 0],
			"scale": [0.2, 0.2, 0.2]
		},
		"gui": {
			"rotation": [20, -140, 0],
			"translation": [0.25, -9.5, 0],
			"scale": [0.4, 0.4, 0.4]
		},
		"head": {
			"translation": [0, -15.75, 3.25]
		},
		"fixed": {
			"rotation": [-90, 26, 0],
			"translation": [0, -2, -15],
			"scale": [2, 2, 2]
		}
	}
}