{
	"credit": "Made with Blockbench",
	"parent": "./pink tulip_0",
	"texture_size": [64, 64],
	"textures": {
		"0": "./cow wheat"
	},
	"elements": [
		{
			"from": [4, -1, 9],
			"to": [16, 9, 9],
			"rotation": {"angle": 0, "axis": "y", "origin": [0, 0, 7]},
			"faces": {
				"north": {"uv": [3.75, 11, 11.75, 16], "texture": "#0"},
				"east": {"uv": [3.75, 11, 11.75, 16], "texture": "#0"},
				"south": {"uv": [3.75, 11, 11.75, 16], "texture": "#0"},
				"west": {"uv": [3.75, 11, 11.75, 16], "texture": "#0"},
				"up": {"uv": [3.75, 11, 11.75, 16], "texture": "#0"},
				"down": {"uv": [3.75, 11, 11.75, 16], "texture": "#0"}
			}
		},
		{
			"from": [-2, -1, 4],
			"to": [10, 9, 4],
			"rotation": {"angle": -22.5, "axis": "y", "origin": [4, 4, 4]},
			"faces": {
				"north": {"uv": [3.75, 11, 11.75, 16], "texture": "#0"},
				"east": {"uv": [3.75, 11, 11.75, 16], "texture": "#0"},
				"south": {"uv": [3.75, 11, 11.75, 16], "texture": "#0"},
				"west": {"uv": [3.75, 11, 11.75, 16], "texture": "#0"},
				"up": {"uv": [3.75, 11, 11.75, 16], "texture": "#0"},
				"down": {"uv": [3.75, 11, 11.75, 16], "texture": "#0"}
			}
		},
		{
			"from": [-1, 0, 12],
			"to": [11, 10, 12],
			"rotation": {"angle": -22.5, "axis": "y", "origin": [5, 5, 12]},
			"faces": {
				"north": {"uv": [3.75, 11, 11.75, 16], "texture": "#0"},
				"east": {"uv": [3.75, 11, 11.75, 16], "texture": "#0"},
				"south": {"uv": [3.75, 11, 11.75, 16], "texture": "#0"},
				"west": {"uv": [3.75, 11, 11.75, 16], "texture": "#0"},
				"up": {"uv": [3.75, 11, 11.75, 16], "texture": "#0"},
				"down": {"uv": [3.75, 11, 11.75, 16], "texture": "#0"}
			}
		},
		{
			"from": [5, 0, 6],
			"to": [5, 10, 18],
			"rotation": {"angle": -45, "axis": "y", "origin": [5, 5, 12]},
			"faces": {
				"north": {"uv": [3.75, 11, 11.75, 16], "texture": "#0"},
				"east": {"uv": [3.75, 11, 11.75, 16], "texture": "#0"},
				"south": {"uv": [3.75, 11, 11.75, 16], "texture": "#0"},
				"west": {"uv": [3.75, 11, 11.75, 16], "texture": "#0"},
				"up": {"uv": [3.75, 11, 11.75, 16], "rotation": 90, "texture": "#0"},
				"down": {"uv": [3.75, 11, 11.75, 16], "rotation": 270, "texture": "#0"}
			}
		},
		{
			"from": [10, -1, 3],
			"to": [10, 9, 15],
			"rotation": {"angle": 0, "axis": "y", "origin": [9, 5, 7]},
			"faces": {
				"north": {"uv": [3.75, 11, 11.75, 16], "texture": "#0"},
				"east": {"uv": [3.75, 11, 11.75, 16], "texture": "#0"},
				"south": {"uv": [3.75, 11, 11.75, 16], "texture": "#0"},
				"west": {"uv": [3.75, 11, 11.75, 16], "texture": "#0"},
				"up": {"uv": [3.75, 11, 11.75, 16], "rotation": 90, "texture": "#0"},
				"down": {"uv": [3.75, 11, 11.75, 16], "rotation": 270, "texture": "#0"}
			}
		},
		{
			"from": [4, -2, -2],
			"to": [4, 8, 10],
			"rotation": {"angle": -45, "axis": "y", "origin": [4, 4, 4]},
			"faces": {
				"north": {"uv": [3.75, 11, 11.75, 16], "texture": "#0"},
				"east": {"uv": [3.75, 11, 11.75, 16], "texture": "#0"},
				"south": {"uv": [3.75, 11, 11.75, 16], "texture": "#0"},
				"west": {"uv": [3.75, 11, 11.75, 16], "texture": "#0"},
				"up": {"uv": [3.75, 11, 11.75, 16], "rotation": 90, "texture": "#0"},
				"down": {"uv": [3.75, 11, 11.75, 16], "rotation": 270, "texture": "#0"}
			}
		},
		{
			"from": [5, 0, 6],
			"to": [5, 10, 18],
			"rotation": {"angle": 0, "axis": "y", "origin": [5, 5, 12]},
			"faces": {
				"north": {"uv": [3.75, 11, 11.75, 16], "texture": "#0"},
				"east": {"uv": [3.75, 11, 11.75, 16], "texture": "#0"},
				"south": {"uv": [3.75, 11, 11.75, 16], "texture": "#0"},
				"west": {"uv": [3.75, 11, 11.75, 16], "texture": "#0"},
				"up": {"uv": [3.75, 11, 11.75, 16], "rotation": 90, "texture": "#0"},
				"down": {"uv": [3.75, 11, 11.75, 16], "rotation": 270, "texture": "#0"}
			}
		}
	],
	"display": {
		"thirdperson_righthand": {
			"translation": [0, 1.5, 0.75],
			"scale": [0.2, 0.2, 0.2]
		},
		"thirdperson_lefthand": {
			"translation": [0, 1.5, 0.75],
			"scale": [0.2, 0.2, 0.2]
		},
		"firstperson_righthand": {
			"translation": [0, 3.25, 0.75],
			"scale": [0.3, 0.3, 0.3]
		},
		"firstperson_lefthand": {
			"translation": [0, 3.25, 0.75],
			"scale": [0.3, 0.3, 0.3]
		},
		"ground": {
			"translation": [0, 0.25, 0],
			"scale": [0.2, 0.2, 0.2]
		},
		"gui": {
			"rotation": [20, -140, 0],
			"translation": [0, -1.5, 0],
			"scale": [0.4, 0.4, 0.4]
		},
		"head": {
			"translation": [0, 13.5, -1]
		},
		"fixed": {
			"rotation": [-90, -19, 0],
			"translation": [2, -0.5, -15],
			"scale": [2, 2, 2]
		}
	}
}