{
	"credit": "Made with Blockbench",
	"texture_size": [64, 64],
	"textures": {
		"0": "./lily pad",
		"particle": "./lily pad"
	},
	"elements": [
		{
			"from": [8.59115, 31.001, -5.15153],
			"to": [19.59115, 31.001, 5.84847],
			"rotation": {"angle": -45, "axis": "y", "origin": [15.23289, 30.49523, -1.09283]},
			"faces": {
				"up": {"uv": [0, 0, 5.5, 5], "rotation": 90, "texture": "#0"},
				"down": {"uv": [0, 0, 5.5, 5], "rotation": 270, "texture": "#0"}
			}
		},
		{
			"from": [13.77353, 19.45, -3.38981],
			"to": [13.77353, 30.95, 0.61019],
			"rotation": {"angle": 0, "axis": "y", "origin": [15.23289, 30.49523, -1.09283]},
			"faces": {
				"north": {"uv": [8, 0, 10, 5.75], "texture": "#0"},
				"east": {"uv": [8, 0, 10, 5.75], "texture": "#0"},
				"south": {"uv": [8, 0, 10, 5.75], "texture": "#0"},
				"west": {"uv": [8, 0, 10, 5.75], "texture": "#0"},
				"up": {"uv": [8, 0, 10, 5.75], "rotation": 180, "texture": "#0"},
				"down": {"uv": [8, 0, 10, 5.75], "rotation": 180, "texture": "#0"}
			}
		},
		{
			"from": [-2.46215, 23.5, 6.72929],
			"to": [1.53785, 31, 6.72929],
			"rotation": {"angle": -22.5, "axis": "y", "origin": [0.29173, 29.1255, 6.76006]},
			"faces": {
				"north": {"uv": [8, 0, 10, 3.75], "texture": "#0"},
				"east": {"uv": [8, 0, 10, 3.75], "texture": "#0"},
				"south": {"uv": [8, 0, 10, 3.75], "texture": "#0"},
				"west": {"uv": [8, 0, 10, 3.75], "texture": "#0"},
				"up": {"uv": [8, 0, 10, 3.75], "rotation": 180, "texture": "#0"},
				"down": {"uv": [8, 0, 10, 3.75], "rotation": 180, "texture": "#0"}
			}
		},
		{
			"from": [2.04561, 23.5, 14.79084],
			"to": [6.04561, 31, 14.79084],
			"rotation": {"angle": 22.5, "axis": "y", "origin": [3.29173, 29.1255, 14.76006]},
			"faces": {
				"north": {"uv": [8, 0, 10, 3.75], "texture": "#0"},
				"east": {"uv": [8, 0, 10, 3.75], "texture": "#0"},
				"south": {"uv": [8, 0, 10, 3.75], "texture": "#0"},
				"west": {"uv": [8, 0, 10, 3.75], "texture": "#0"},
				"up": {"uv": [8, 0, 10, 3.75], "texture": "#0"},
				"down": {"uv": [8, 0, 10, 3.75], "texture": "#0"}
			}
		},
		{
			"from": [-3, 31.001, 3],
			"to": [5, 31.001, 10],
			"rotation": {"angle": -45, "axis": "y", "origin": [0.29173, 29.1255, 6.76006]},
			"faces": {
				"north": {"uv": [0, 5, 4, 8.5], "texture": "#0"},
				"east": {"uv": [0, 5, 4, 8.5], "texture": "#0"},
				"south": {"uv": [0, 5, 4, 8.5], "texture": "#0"},
				"west": {"uv": [0, 5, 4, 8.5], "texture": "#0"},
				"up": {"uv": [0, 5, 4, 8.5], "texture": "#0"},
				"down": {"uv": [0, 5, 4, 8.5], "texture": "#0"}
			}
		},
		{
			"from": [-1.41654, 31.005, 11.52013],
			"to": [6.58346, 31.005, 18.52013],
			"rotation": {"angle": 0, "axis": "y", "origin": [3.29173, 29.1255, 14.76006]},
			"faces": {
				"north": {"uv": [0, 5, 4, 8.5], "texture": "#0"},
				"east": {"uv": [0, 5, 4, 8.5], "texture": "#0"},
				"south": {"uv": [0, 5, 4, 8.5], "texture": "#0"},
				"west": {"uv": [0, 5, 4, 8.5], "texture": "#0"},
				"up": {"uv": [0, 5, 4, 8.5], "rotation": 180, "texture": "#0"},
				"down": {"uv": [0, 5, 4, 8.5], "rotation": 180, "texture": "#0"}
			}
		},
		{
			"from": [-2.73252, 31, -6.17825],
			"to": [4.26748, 31, 1.82175],
			"rotation": {"angle": -22.5, "axis": "y", "origin": [0.89807, 29.75, -2.25124]},
			"faces": {
				"north": {"uv": [0, 8.5, 4, 12], "rotation": 180, "texture": "#0"},
				"east": {"uv": [0, 8.5, 4, 12], "rotation": 180, "texture": "#0"},
				"south": {"uv": [0, 8.5, 4, 12], "rotation": 180, "texture": "#0"},
				"west": {"uv": [0, 8.5, 4, 12], "rotation": 180, "texture": "#0"},
				"up": {"uv": [0, 8.5, 4, 12], "rotation": 270, "texture": "#0"},
				"down": {"uv": [0, 8.5, 4, 12], "rotation": 90, "texture": "#0"}
			}
		},
		{
			"from": [10.82508, 31, 5.11817],
			"to": [18.82508, 31, 12.11817],
			"rotation": {"angle": 22.5, "axis": "y", "origin": [14.89807, 29.75, 8.74876]},
			"faces": {
				"north": {"uv": [0, 8.5, 4, 12], "rotation": 180, "texture": "#0"},
				"east": {"uv": [0, 8.5, 4, 12], "rotation": 180, "texture": "#0"},
				"south": {"uv": [0, 8.5, 4, 12], "rotation": 180, "texture": "#0"},
				"west": {"uv": [0, 8.5, 4, 12], "rotation": 180, "texture": "#0"},
				"up": {"uv": [0, 8.5, 4, 12], "texture": "#0"},
				"down": {"uv": [0, 8.5, 4, 12], "texture": "#0"}
			}
		},
		{
			"from": [3.26748, 31, 7.82175],
			"to": [10.26748, 31, 15.82175],
			"rotation": {"angle": 0, "axis": "y", "origin": [6.89807, 29.75, 11.74876]},
			"faces": {
				"north": {"uv": [0, 8.5, 4, 12], "rotation": 180, "texture": "#0"},
				"east": {"uv": [0, 8.5, 4, 12], "rotation": 180, "texture": "#0"},
				"south": {"uv": [0, 8.5, 4, 12], "rotation": 180, "texture": "#0"},
				"west": {"uv": [0, 8.5, 4, 12], "rotation": 180, "texture": "#0"},
				"up": {"uv": [0, 8.5, 4, 12], "rotation": 270, "texture": "#0"},
				"down": {"uv": [0, 8.5, 4, 12], "rotation": 90, "texture": "#0"}
			}
		},
		{
			"from": [-0.95334, 26, -2.2687],
			"to": [3.04666, 31, -2.2687],
			"rotation": {"angle": 0, "axis": "y", "origin": [0.89807, 29.75, -2.25124]},
			"faces": {
				"north": {"uv": [8, 0, 10, 2.5], "texture": "#0"},
				"east": {"uv": [8, 0, 10, 2.5], "texture": "#0"},
				"south": {"uv": [8, 0, 10, 2.5], "texture": "#0"},
				"west": {"uv": [8, 0, 10, 2.5], "texture": "#0"},
				"up": {"uv": [8, 0, 10, 2.5], "rotation": 90, "texture": "#0"},
				"down": {"uv": [8, 0, 10, 2.5], "rotation": 270, "texture": "#0"}
			}
		},
		{
			"from": [13.04666, 26, 8.7313],
			"to": [17.04666, 31, 8.7313],
			"rotation": {"angle": -45, "axis": "y", "origin": [14.89807, 29.75, 8.74876]},
			"faces": {
				"north": {"uv": [8, 0, 10, 2.5], "texture": "#0"},
				"east": {"uv": [8, 0, 10, 2.5], "texture": "#0"},
				"south": {"uv": [8, 0, 10, 2.5], "texture": "#0"},
				"west": {"uv": [8, 0, 10, 2.5], "texture": "#0"},
				"up": {"uv": [8, 0, 10, 2.5], "rotation": 90, "texture": "#0"},
				"down": {"uv": [8, 0, 10, 2.5], "rotation": 270, "texture": "#0"}
			}
		},
		{
			"from": [5.04666, 26, 11.7313],
			"to": [9.04666, 31, 11.7313],
			"rotation": {"angle": 22.5, "axis": "y", "origin": [6.89807, 29.75, 11.74876]},
			"faces": {
				"north": {"uv": [8, 0, 10, 2.5], "texture": "#0"},
				"east": {"uv": [8, 0, 10, 2.5], "texture": "#0"},
				"south": {"uv": [8, 0, 10, 2.5], "texture": "#0"},
				"west": {"uv": [8, 0, 10, 2.5], "texture": "#0"},
				"up": {"uv": [8, 0, 10, 2.5], "rotation": 90, "texture": "#0"},
				"down": {"uv": [8, 0, 10, 2.5], "rotation": 270, "texture": "#0"}
			}
		},
		{
			"from": [3.89914, 31.005, -0.09517],
			"to": [10.89914, 31.005, 7.90483],
			"rotation": {"angle": 22.5, "axis": "y", "origin": [4.71719, 29.7505, 4.21278]},
			"faces": {
				"north": {"uv": [0, 8.5, 4, 12], "rotation": 90, "texture": "#0"},
				"east": {"uv": [0, 8.5, 4, 12], "rotation": 90, "texture": "#0"},
				"south": {"uv": [0, 8.5, 4, 12], "rotation": 90, "texture": "#0"},
				"west": {"uv": [0, 8.5, 4, 12], "rotation": 90, "texture": "#0"},
				"up": {"uv": [0, 8.5, 4, 12], "rotation": 90, "texture": "#0"},
				"down": {"uv": [0, 8.5, 4, 12], "rotation": 90, "texture": "#0"}
			}
		},
		{
			"from": [5.03525, 26, 4.52073],
			"to": [9.03525, 31, 4.52073],
			"rotation": {"angle": 22.5, "axis": "y", "origin": [4.71719, 29.7505, 4.21278]},
			"faces": {
				"north": {"uv": [8, 0, 10, 2.5], "texture": "#0"},
				"east": {"uv": [8, 0, 10, 2.5], "texture": "#0"},
				"south": {"uv": [8, 0, 10, 2.5], "texture": "#0"},
				"west": {"uv": [8, 0, 10, 2.5], "texture": "#0"},
				"up": {"uv": [8, 0, 10, 2.5], "rotation": 270, "texture": "#0"},
				"down": {"uv": [8, 0, 10, 2.5], "rotation": 90, "texture": "#0"}
			}
		},
		{
			"from": [13.63998, 30.7659, -3.53992],
			"to": [17.13998, 30.7659, -2.53992],
			"rotation": {"angle": 22.5, "axis": "x", "origin": [15.23289, 30.49523, -1.09283]},
			"faces": {
				"north": {"uv": [0.5, 13.75, 2.25, 14.25], "texture": "#0"},
				"east": {"uv": [0.5, 13.75, 2.25, 14.25], "texture": "#0"},
				"south": {"uv": [0.5, 13.75, 2.25, 14.25], "texture": "#0"},
				"west": {"uv": [0.5, 13.75, 2.25, 14.25], "texture": "#0"},
				"up": {"uv": [0.5, 13.75, 2.25, 14.25], "rotation": 180, "texture": "#0"},
				"down": {"uv": [0, 13.75, 1.75, 14.25], "texture": "#0"}
			}
		},
		{
			"from": [17.30317, 30.50885, -3.3258],
			"to": [18.30317, 30.50885, 0.1742],
			"rotation": {"angle": 22.5, "axis": "z", "origin": [15.23289, 30.49523, -1.09283]},
			"faces": {
				"north": {"uv": [0, 12.5, 0.5, 14.25], "texture": "#0"},
				"east": {"uv": [0, 12.5, 0.5, 14.25], "texture": "#0"},
				"south": {"uv": [0, 12.5, 0.5, 14.25], "texture": "#0"},
				"west": {"uv": [0, 12.5, 0.5, 14.25], "texture": "#0"},
				"up": {"uv": [0, 12.5, 0.5, 14.25], "rotation": 180, "texture": "#0"},
				"down": {"uv": [0, 12, 0.5, 13.75], "rotation": 180, "texture": "#0"}
			}
		},
		{
			"from": [14.63998, 30.75379, 0.38611],
			"to": [18.13998, 30.75379, 1.38611],
			"rotation": {"angle": -22.5, "axis": "x", "origin": [15.23289, 30.49523, -1.09283]},
			"faces": {
				"north": {"uv": [0, 12, 1.75, 12.5], "texture": "#0"},
				"east": {"uv": [0, 12, 1.75, 12.5], "texture": "#0"},
				"south": {"uv": [0, 12, 1.75, 12.5], "texture": "#0"},
				"west": {"uv": [0, 12, 1.75, 12.5], "texture": "#0"},
				"up": {"uv": [0, 12, 1.75, 12.5], "rotation": 180, "texture": "#0"},
				"down": {"uv": [0.25, 12, 2, 12.5], "texture": "#0"}
			}
		},
		{
			"from": [13.37677, 31.01277, -2.3258],
			"to": [14.37677, 31.01277, 1.1742],
			"rotation": {"angle": -22.5, "axis": "z", "origin": [15.23289, 30.49523, -1.09283]},
			"faces": {
				"north": {"uv": [1.75, 12, 2.25, 13.75], "texture": "#0"},
				"east": {"uv": [1.75, 12, 2.25, 13.75], "texture": "#0"},
				"south": {"uv": [1.75, 12, 2.25, 13.75], "texture": "#0"},
				"west": {"uv": [1.75, 12, 2.25, 13.75], "texture": "#0"},
				"up": {"uv": [1.75, 12, 2.25, 13.75], "rotation": 180, "texture": "#0"},
				"down": {"uv": [1.75, 12.5, 2.25, 14.25], "rotation": 180, "texture": "#0"}
			}
		},
		{
			"from": [14.63998, 31.3, -2.3258],
			"to": [17.13998, 31.3, 0.1742],
			"rotation": {"angle": 0, "axis": "y", "origin": [15.23289, 30.49523, -1.09283]},
			"faces": {
				"north": {"uv": [0, 0, 0.25, 0.25], "texture": "#missing"},
				"east": {"uv": [0, 0, 0.25, 0.25], "texture": "#missing"},
				"south": {"uv": [0, 0, 0.25, 0.25], "texture": "#missing"},
				"west": {"uv": [0, 0, 0.25, 0.25], "texture": "#missing"},
				"up": {"uv": [0.5, 12.5, 1.75, 13.75], "rotation": 180, "texture": "#0"},
				"down": {"uv": [0, 0, 0.25, 0.25], "rotation": 180, "texture": "#missing"}
			}
		}
	],
	"display": {
		"thirdperson_righthand": {
			"rotation": [38, 0, 0],
			"translation": [0, -3.75, -2],
			"scale": [0.2, 0.2, 0.2]
		},
		"thirdperson_lefthand": {
			"rotation": [38, 0, 0],
			"translation": [0, -3.75, -2],
			"scale": [0.2, 0.2, 0.2]
		},
		"firstperson_righthand": {
			"rotation": [126, 78, -114],
			"translation": [0.25, -5.25, 1],
			"scale": [0.4, 0.4, 0.4]
		},
		"firstperson_lefthand": {
			"rotation": [126, 78, -114],
			"translation": [0.25, -5.25, 1],
			"scale": [0.4, 0.4, 0.4]
		},
		"ground": {
			"translation": [0, -4.5, 0],
			"scale": [0.2, 0.2, 0.2]
		},
		"gui": {
			"rotation": [20, -140, 0],
			"translation": [0.25, -9.5, 0],
			"scale": [0.4, 0.4, 0.4]
		},
		"head": {
			"translation": [0, -15.75, 3.25]
		},
		"fixed": {
			"rotation": [-90, 0, 0],
			"translation": [0, -2, -45],
			"scale": [2, 2, 2]
		}
	},
	"groups": [
		{
			"name": "1",
			"origin": [5.88062, 25.2, 13.60018],
			"children": [0, 1]
		},
		{
			"name": "1a",
			"origin": [-7.11938, 19.5, 0.60018],
			"children": []
		},
		{
			"name": "2",
			"origin": [0, 14, 0],
			"children": [2, 3, 4, 5]
		},
		{
			"name": "3",
			"origin": [19.4239, 28.5, 0.89629],
			"children": [6, 7, 8, 9, 10, 11]
		},
		{
			"name": "3a",
			"origin": [19.4239, 28.5, 0.89629],
			"children": [12, 13]
		},
		{
			"name": "flower",
			"origin": [-8, 12, -3],
			"children": [14, 15, 16, 17, 18]
		}
	]
}