{
	"credit": "Made with Blockbench",
	"texture_size": [64, 64],
	"textures": {
		"0": "./typha",
		"particle": "./typha"
	},
	"elements": [
		{
			"from": [5, 0, 0],
			"to": [5, 23, 21],
			"rotation": {"angle": -45, "axis": "y", "origin": [10, 11.5, 10.5]},
			"faces": {
				"north": {"uv": [3.25, 4.5, 13.25, 16], "texture": "#0"},
				"east": {"uv": [3.25, 4.5, 13.25, 16], "texture": "#0"},
				"south": {"uv": [3.25, 4.5, 13.25, 16], "texture": "#0"},
				"west": {"uv": [3.25, 4.5, 13.25, 16], "texture": "#0"},
				"up": {"uv": [3.25, 4.5, 13.25, 16], "texture": "#0"},
				"down": {"uv": [3.25, 4.5, 13.25, 16], "texture": "#0"}
			}
		},
		{
			"from": [-2.62132, 0, 7.37868],
			"to": [18.37868, 23, 7.37868],
			"rotation": {"angle": 0, "axis": "y", "origin": [7.87868, 11.5, 8.37868]},
			"faces": {
				"north": {"uv": [3.25, 4.5, 13.25, 16], "texture": "#0"},
				"east": {"uv": [3.25, 4.5, 13.25, 16], "texture": "#0"},
				"south": {"uv": [3.25, 4.5, 13.25, 16], "texture": "#0"},
				"west": {"uv": [3.25, 4.5, 13.25, 16], "texture": "#0"},
				"up": {"uv": [3.25, 4.5, 13.25, 16], "rotation": 90, "texture": "#0"},
				"down": {"uv": [3.25, 4.5, 13.25, 16], "rotation": 270, "texture": "#0"}
			}
		},
		{
			"from": [-2.62132, 0, 8.37868],
			"to": [18.37868, 23, 8.37868],
			"rotation": {"angle": -45, "axis": "y", "origin": [7.87868, 11.5, 8.37868]},
			"faces": {
				"north": {"uv": [3.25, 4.5, 13.25, 16], "texture": "#0"},
				"east": {"uv": [3.25, 4.5, 13.25, 16], "texture": "#0"},
				"south": {"uv": [3.25, 4.5, 13.25, 16], "texture": "#0"},
				"west": {"uv": [3.25, 4.5, 13.25, 16], "texture": "#0"},
				"up": {"uv": [3.25, 4.5, 13.25, 16], "texture": "#0"},
				"down": {"uv": [3.25, 4.5, 13.25, 16], "texture": "#0"}
			}
		},
		{
			"from": [10.87868, 0, -2.12132],
			"to": [10.87868, 23, 18.87868],
			"rotation": {"angle": 0, "axis": "y", "origin": [7.87868, 11.5, 8.37868]},
			"faces": {
				"north": {"uv": [3.25, 4.5, 13.25, 16], "texture": "#0"},
				"east": {"uv": [3.25, 4.5, 13.25, 16], "texture": "#0"},
				"south": {"uv": [3.25, 4.5, 13.25, 16], "texture": "#0"},
				"west": {"uv": [3.25, 4.5, 13.25, 16], "texture": "#0"},
				"up": {"uv": [3.25, 4.5, 13.25, 16], "rotation": 90, "texture": "#0"},
				"down": {"uv": [3.25, 4.5, 13.25, 16], "rotation": 270, "texture": "#0"}
			}
		}
	],
	"display": {
		"thirdperson_righthand": {
			"rotation": [90, 0, 0],
			"translation": [-0.25, 0.75, -0.5],
			"scale": [0.2, 0.2, 0.2]
		},
		"thirdperson_lefthand": {
			"rotation": [90, 0, 0],
			"translation": [-0.25, 0.75, -0.5],
			"scale": [0.2, 0.2, 0.2]
		},
		"firstperson_righthand": {
			"rotation": [101, 78, -114],
			"translation": [0.25, -0.25, 1],
			"scale": [0.4, 0.4, 0.4]
		},
		"firstperson_lefthand": {
			"rotation": [101, 78, -114],
			"translation": [0.25, -0.25, 1],
			"scale": [0.4, 0.4, 0.4]
		},
		"ground": {
			"translation": [0, 0.25, 0],
			"scale": [0.2, 0.2, 0.2]
		},
		"gui": {
			"rotation": [20, -140, 0],
			"translation": [1, -3, 0],
			"scale": [0.4, 0.4, 0.4]
		},
		"head": {
			"translation": [0, 0, 1.25]
		},
		"fixed": {
			"rotation": [-90, 0, 0],
			"translation": [1, 0, -15],
			"scale": [2, 2, 2]
		}
	}
}