{
	"credit": "Made with Blockbench",
	"texture_size": [64, 64],
	"textures": {
		"0": "./brown mushroom",
		"particle": "./brown mushroom"
	},
	"elements": [
		{
			"from": [6.5, -2.5, 4.6],
			"to": [10.5, 1.5, 5.2],
			"faces": {
				"north": {"uv": [0.75, 12.25, 2.75, 14.25], "rotation": 180, "texture": "#0"},
				"east": {"uv": [1, 14, 3, 14.5], "rotation": 270, "texture": "#0"},
				"south": {"uv": [0, 0, 1, 1], "texture": "#missing"},
				"west": {"uv": [1, 14, 3, 14.5], "rotation": 90, "texture": "#0"},
				"up": {"uv": [1, 14, 3, 14.5], "rotation": 180, "texture": "#0"},
				"down": {"uv": [1, 14, 3, 14.5], "texture": "#0"}
			}
		},
		{
			"from": [10.5, -2.5, 6.6],
			"to": [14.5, 1.5, 7.2],
			"faces": {
				"north": {"uv": [0.75, 12.25, 2.75, 14.25], "rotation": 180, "texture": "#0"},
				"east": {"uv": [1, 14, 3, 14.5], "rotation": 270, "texture": "#0"},
				"south": {"uv": [0, 0, 1, 1], "texture": "#missing"},
				"west": {"uv": [1, 14, 3, 14.5], "rotation": 90, "texture": "#0"},
				"up": {"uv": [1, 14, 3, 14.5], "rotation": 180, "texture": "#0"},
				"down": {"uv": [1, 14, 3, 14.5], "texture": "#0"}
			}
		},
		{
			"from": [7.5, -0.501, 8.6],
			"to": [11.5, 3.499, 9.2],
			"faces": {
				"north": {"uv": [0.75, 12.25, 2.75, 14.25], "rotation": 180, "texture": "#0"},
				"east": {"uv": [1, 14, 3, 14.5], "rotation": 270, "texture": "#0"},
				"south": {"uv": [0, 0, 1, 1], "texture": "#missing"},
				"west": {"uv": [1, 14, 3, 14.5], "rotation": 90, "texture": "#0"},
				"up": {"uv": [1, 14, 3, 14.5], "rotation": 180, "texture": "#0"},
				"down": {"uv": [1, 14, 3, 14.5], "texture": "#0"}
			}
		},
		{
			"from": [11.5, -1.501, 11.6],
			"to": [13.5, 0.499, 12.2],
			"faces": {
				"north": {"uv": [0.75, 12.25, 2.75, 14.25], "rotation": 180, "texture": "#0"},
				"east": {"uv": [1, 14, 3, 14.5], "rotation": 270, "texture": "#0"},
				"south": {"uv": [0, 0, 1, 1], "texture": "#missing"},
				"west": {"uv": [1, 14, 3, 14.5], "rotation": 90, "texture": "#0"},
				"up": {"uv": [1, 14, 3, 14.5], "rotation": 180, "texture": "#0"},
				"down": {"uv": [1, 14, 3, 14.5], "texture": "#0"}
			}
		},
		{
			"from": [7.5, -1.5, 4.2],
			"to": [9.5, 0.5, 5.8],
			"faces": {
				"north": {"uv": [2.25, 13, 3.25, 14], "rotation": 180, "texture": "#0"},
				"east": {"uv": [2.25, 13, 3.25, 14], "rotation": 270, "texture": "#0"},
				"south": {"uv": [2.25, 13, 3.25, 14], "texture": "#0"},
				"west": {"uv": [2.25, 13, 3.25, 14], "rotation": 90, "texture": "#0"},
				"up": {"uv": [2.25, 13, 3.25, 14], "rotation": 180, "texture": "#0"},
				"down": {"uv": [2.25, 13, 3.25, 14], "texture": "#0"}
			}
		},
		{
			"from": [11.5, -1.5, 6.2],
			"to": [13.5, 0.5, 7.8],
			"faces": {
				"north": {"uv": [2.25, 13, 3.25, 14], "rotation": 180, "texture": "#0"},
				"east": {"uv": [2.25, 13, 3.25, 14], "rotation": 270, "texture": "#0"},
				"south": {"uv": [2.25, 13, 3.25, 14], "texture": "#0"},
				"west": {"uv": [2.25, 13, 3.25, 14], "rotation": 90, "texture": "#0"},
				"up": {"uv": [2.25, 13, 3.25, 14], "rotation": 180, "texture": "#0"},
				"down": {"uv": [2.25, 13, 3.25, 14], "texture": "#0"}
			}
		},
		{
			"from": [4.5, -4.5, 5],
			"to": [12.5, 3.5, 6],
			"faces": {
				"north": {"uv": [1, 13, 3, 15], "texture": "#0"},
				"east": {"uv": [8.75, 10.25, 9.25, 12.25], "texture": "#0"},
				"south": {"uv": [9.75, 9.5, 13.75, 13.5], "texture": "#0"},
				"west": {"uv": [11.75, 12, 12.25, 14], "rotation": 180, "texture": "#0"},
				"up": {"uv": [11.75, 13.75, 12.25, 15.75], "rotation": 270, "texture": "#0"},
				"down": {"uv": [12, 11.75, 12.5, 13.75], "rotation": 90, "texture": "#0"}
			}
		},
		{
			"from": [8.5, -4.5, 7],
			"to": [16.5, 3.5, 8],
			"faces": {
				"north": {"uv": [1, 13, 3, 15], "rotation": 180, "texture": "#0"},
				"east": {"uv": [8.75, 10.25, 9.25, 12.25], "texture": "#0"},
				"south": {"uv": [9.75, 9.5, 13.75, 13.5], "texture": "#0"},
				"west": {"uv": [11.75, 12, 12.25, 14], "rotation": 180, "texture": "#0"},
				"up": {"uv": [11.75, 13.75, 12.25, 15.75], "rotation": 270, "texture": "#0"},
				"down": {"uv": [12, 11.75, 12.5, 13.75], "rotation": 90, "texture": "#0"}
			}
		},
		{
			"from": [5.5, -3.5, 9],
			"to": [13.5, 4.5, 10],
			"faces": {
				"north": {"uv": [1, 13, 3, 15], "rotation": 270, "texture": "#0"},
				"east": {"uv": [8.75, 10.25, 9.25, 12.25], "texture": "#0"},
				"south": {"uv": [9.75, 9.5, 13.75, 13.5], "texture": "#0"},
				"west": {"uv": [11.75, 12, 12.25, 14], "rotation": 180, "texture": "#0"},
				"up": {"uv": [11.75, 13.75, 12.25, 15.75], "rotation": 270, "texture": "#0"},
				"down": {"uv": [12, 11.75, 12.5, 13.75], "rotation": 90, "texture": "#0"}
			}
		},
		{
			"from": [9.5, -3.5, 12],
			"to": [15.5, 2.5, 13],
			"faces": {
				"north": {"uv": [1, 13, 3, 15], "rotation": 270, "texture": "#0"},
				"east": {"uv": [8.75, 10.25, 9.25, 12.25], "texture": "#0"},
				"south": {"uv": [9.75, 9.5, 13.75, 13.5], "texture": "#0"},
				"west": {"uv": [11.75, 12, 12.25, 14], "rotation": 180, "texture": "#0"},
				"up": {"uv": [11.75, 13.75, 12.25, 15.75], "rotation": 270, "texture": "#0"},
				"down": {"uv": [12, 11.75, 12.5, 13.75], "rotation": 90, "texture": "#0"}
			}
		},
		{
			"from": [5.5, -3.5, 6],
			"to": [11.5, 2.5, 7],
			"faces": {
				"north": {"uv": [0, 0, 1, 1], "rotation": 180, "texture": "#missing"},
				"east": {"uv": [8.75, 10.25, 9.25, 12.25], "texture": "#0"},
				"south": {"uv": [9.75, 9.5, 12.75, 12.5], "texture": "#0"},
				"west": {"uv": [11.75, 12, 12.25, 14], "rotation": 180, "texture": "#0"},
				"up": {"uv": [11.75, 13.75, 12.25, 15.75], "rotation": 270, "texture": "#0"},
				"down": {"uv": [12, 11.75, 12.5, 13.75], "rotation": 90, "texture": "#0"}
			}
		},
		{
			"from": [9.5, -3.5, 8],
			"to": [15.5, 2.5, 9],
			"faces": {
				"north": {"uv": [0, 0, 1, 1], "rotation": 180, "texture": "#missing"},
				"east": {"uv": [8.75, 10.25, 9.25, 12.25], "texture": "#0"},
				"south": {"uv": [9.75, 9.5, 12.75, 12.5], "texture": "#0"},
				"west": {"uv": [11.75, 12, 12.25, 14], "rotation": 180, "texture": "#0"},
				"up": {"uv": [11.75, 13.75, 12.25, 15.75], "rotation": 270, "texture": "#0"},
				"down": {"uv": [12, 11.75, 12.5, 13.75], "rotation": 90, "texture": "#0"}
			}
		},
		{
			"from": [6.5, -2.5, 10],
			"to": [12.5, 3.5, 11],
			"faces": {
				"north": {"uv": [0, 0, 1, 1], "rotation": 180, "texture": "#missing"},
				"east": {"uv": [8.75, 10.25, 9.25, 12.25], "texture": "#0"},
				"south": {"uv": [9.75, 9.5, 12.75, 12.5], "texture": "#0"},
				"west": {"uv": [11.75, 12, 12.25, 14], "rotation": 180, "texture": "#0"},
				"up": {"uv": [11.75, 13.75, 12.25, 15.75], "rotation": 270, "texture": "#0"},
				"down": {"uv": [12, 11.75, 12.5, 13.75], "rotation": 90, "texture": "#0"}
			}
		},
		{
			"from": [10.5, -2.5, 13],
			"to": [14.5, 1.5, 14],
			"faces": {
				"north": {"uv": [0, 0, 1, 1], "rotation": 180, "texture": "#missing"},
				"east": {"uv": [8.75, 10.25, 9.25, 12.25], "texture": "#0"},
				"south": {"uv": [9.75, 9.5, 12.75, 12.5], "texture": "#0"},
				"west": {"uv": [11.75, 12, 12.25, 14], "rotation": 180, "texture": "#0"},
				"up": {"uv": [11.75, 13.75, 12.25, 15.75], "rotation": 270, "texture": "#0"},
				"down": {"uv": [12, 11.75, 12.5, 13.75], "rotation": 90, "texture": "#0"}
			}
		}
	],
	"display": {
		"thirdperson_righthand": {
			"translation": [0, 1.5, 1],
			"scale": [0.2, 0.2, 0.2]
		},
		"thirdperson_lefthand": {
			"translation": [0, 1.5, 0.75],
			"scale": [0.2, 0.2, 0.2]
		},
		"firstperson_righthand": {
			"rotation": [101, 78, -114],
			"translation": [0.25, 3, 1],
			"scale": [0.4, 0.4, 0.4]
		},
		"firstperson_lefthand": {
			"rotation": [101, 78, -114],
			"translation": [0.25, 3, 1],
			"scale": [0.4, 0.4, 0.4]
		},
		"ground": {
			"translation": [0, 0.25, 0],
			"scale": [0.2, 0.2, 0.2]
		},
		"gui": {
			"rotation": [20, -140, 0],
			"translation": [0.25, -1.5, 0],
			"scale": [0.4, 0.4, 0.4]
		},
		"head": {
			"translation": [0, 14.25, -1]
		},
		"fixed": {
			"rotation": [-90, 0, 0],
			"translation": [-4.75, -2, -15.25],
			"scale": [2, 2, 2]
		}
	}
}