{
	"credit": "Made with Blockbench",
	"texture_size": [64, 64],
	"textures": {
		"0": "./red mushroom",
		"particle": "./red mushroom"
	},
	"elements": [
		{
			"from": [6.5, -2.5, 4.6],
			"to": [13.5, 4.5, 5.2],
			"faces": {
				"north": {"uv": [0.75, 12.25, 4, 15.75], "rotation": 180, "texture": "#0"},
				"east": {"uv": [1, 14, 3, 14.5], "rotation": 270, "texture": "#0"},
				"south": {"uv": [0, 0, 1, 1], "texture": "#missing"},
				"west": {"uv": [1, 14, 3, 14.5], "rotation": 90, "texture": "#0"},
				"up": {"uv": [1, 14, 3, 14.5], "rotation": 180, "texture": "#0"},
				"down": {"uv": [1, 14, 3, 14.5], "texture": "#0"}
			}
		},
		{
			"from": [13.5, -2.5, 5],
			"to": [14.5, 4.5, 7],
			"faces": {
				"north": {"uv": [1.75, 14, 2.25, 16], "rotation": 180, "texture": "#0"},
				"east": {"uv": [10.5, 14.5, 14, 15.5], "rotation": 90, "texture": "#0"},
				"south": {"uv": [15, 12.25, 15.5, 14.25], "texture": "#0"},
				"west": {"uv": [0, 0, 1, 0.5], "rotation": 90, "texture": "#missing"},
				"up": {"uv": [12.75, 11, 13.25, 12], "rotation": 180, "texture": "#0"},
				"down": {"uv": [12, 9.5, 12.5, 10.5], "texture": "#0"}
			}
		},
		{
			"from": [5.5, -2.5, 5],
			"to": [6.5, 4.5, 7],
			"faces": {
				"north": {"uv": [1.75, 13, 2.25, 15], "rotation": 180, "texture": "#0"},
				"east": {"uv": [0, 0, 1, 0.5], "rotation": 270, "texture": "#missing"},
				"south": {"uv": [11.25, 9.5, 11.75, 11.5], "texture": "#0"},
				"west": {"uv": [8.75, 10, 12.25, 11], "rotation": 90, "texture": "#0"},
				"up": {"uv": [8.5, 10, 9, 11], "texture": "#0"},
				"down": {"uv": [10.5, 10.75, 11, 11.75], "texture": "#0"}
			}
		},
		{
			"from": [6.5, -2.5, 7],
			"to": [13.5, 4.5, 8],
			"faces": {
				"north": {"uv": [0, 0, 1, 1], "rotation": 180, "texture": "#missing"},
				"east": {"uv": [8, 8, 8.5, 11.5], "texture": "#0"},
				"south": {"uv": [9.5, 9, 13, 12.5], "texture": "#0"},
				"west": {"uv": [14.75, 9.5, 15.25, 13], "rotation": 180, "texture": "#0"},
				"up": {"uv": [11, 11.5, 11.5, 15], "rotation": 270, "texture": "#0"},
				"down": {"uv": [12, 11.75, 12.5, 13.75], "rotation": 90, "texture": "#0"}
			}
		},
		{
			"from": [6.5, 1.5, 5],
			"to": [13.5, 5.5, 7],
			"rotation": {"angle": 0, "axis": "y", "origin": [7.5, -6.5, 6.5]},
			"faces": {
				"north": {"uv": [3, 13, 3.5, 15], "rotation": 270, "texture": "#0"},
				"east": {"uv": [13, 11, 13.5, 12], "rotation": 270, "texture": "#0"},
				"south": {"uv": [10.5, 10, 11, 12], "rotation": 270, "texture": "#0"},
				"west": {"uv": [11, 11.75, 11.5, 12.75], "rotation": 270, "texture": "#0"},
				"up": {"uv": [11.75, 12.25, 15.25, 13.25], "rotation": 180, "texture": "#0"},
				"down": {"uv": [0, 0, 1, 0.5], "texture": "#missing"}
			}
		},
		{
			"from": [6.5, -3.5, 5],
			"to": [13.5, -2.5, 7],
			"rotation": {"angle": 0, "axis": "y", "origin": [7.5, -6.5, 6.5]},
			"faces": {
				"north": {"uv": [0, 12, 0.5, 14], "rotation": 270, "texture": "#0"},
				"east": {"uv": [11, 10.75, 11.5, 11.75], "rotation": 270, "texture": "#0"},
				"south": {"uv": [8.75, 9, 9.25, 11], "rotation": 270, "texture": "#0"},
				"west": {"uv": [11, 12.5, 11.5, 13.5], "rotation": 90, "texture": "#0"},
				"up": {"uv": [0, 0, 1, 0.5], "rotation": 180, "texture": "#missing"},
				"down": {"uv": [8.25, 11.25, 10.25, 12.25], "texture": "#0"}
			}
		},
		{
			"from": [5.5, -3.5, 5],
			"to": [6.5, -2.5, 6],
			"rotation": {"angle": 0, "axis": "y", "origin": [7.5, -6.5, 6.5]},
			"faces": {
				"north": {"uv": [3.25, 12.25, 3.75, 12.75], "texture": "#0"},
				"east": {"uv": [13, 11, 13.5, 11.5], "rotation": 90, "texture": "#0"},
				"south": {"uv": [13, 11, 13.5, 11.5], "rotation": 180, "texture": "#0"},
				"west": {"uv": [13, 13, 13.5, 13.5], "rotation": 270, "texture": "#0"},
				"up": {"uv": [13, 11, 13.5, 11.5], "texture": "#0"},
				"down": {"uv": [13.25, 11, 13.75, 11.5], "rotation": 180, "texture": "#0"}
			}
		},
		{
			"from": [13.5, -3.5, 5],
			"to": [14.5, -2.5, 6],
			"rotation": {"angle": 0, "axis": "y", "origin": [7.5, -6.5, 6.5]},
			"faces": {
				"north": {"uv": [3, 15, 3.5, 15.5], "rotation": 270, "texture": "#0"},
				"east": {"uv": [10, 11, 10.5, 11.5], "texture": "#0"},
				"south": {"uv": [10, 11, 10.5, 11.5], "rotation": 270, "texture": "#0"},
				"west": {"uv": [0, 0, 0.25, 0.25], "rotation": 90, "texture": "#missing"},
				"up": {"uv": [0, 0, 0.25, 0.25], "rotation": 180, "texture": "#missing"},
				"down": {"uv": [10, 11, 10.5, 11.5], "rotation": 180, "texture": "#0"}
			}
		},
		{
			"from": [13.5, 4.5, 5],
			"to": [14.5, 5.5, 6],
			"rotation": {"angle": 0, "axis": "y", "origin": [7.5, -6.5, 6.5]},
			"faces": {
				"north": {"uv": [3, 15.25, 3.5, 15.75], "rotation": 90, "texture": "#0"},
				"east": {"uv": [11.75, 15, 12.25, 15.5], "rotation": 180, "texture": "#0"},
				"south": {"uv": [12.25, 9.25, 12.75, 9.75], "rotation": 270, "texture": "#0"},
				"west": {"uv": [0, 0, 0.25, 0.25], "rotation": 90, "texture": "#missing"},
				"up": {"uv": [12.75, 11.75, 13.25, 12.25], "rotation": 90, "texture": "#0"},
				"down": {"uv": [0, 0, 0.25, 0.25], "texture": "#missing"}
			}
		},
		{
			"from": [5.5, 4.5, 5],
			"to": [6.5, 5.5, 6],
			"rotation": {"angle": 0, "axis": "y", "origin": [7.5, -6.5, 6.5]},
			"faces": {
				"north": {"uv": [1.5, 13.25, 2, 13.75], "rotation": 180, "texture": "#0"},
				"east": {"uv": [0, 0, 0.25, 0.25], "rotation": 270, "texture": "#missing"},
				"south": {"uv": [13.5, 15.25, 14, 15.75], "rotation": 270, "texture": "#0"},
				"west": {"uv": [15.25, 14, 15.75, 14.5], "texture": "#0"},
				"up": {"uv": [12.5, 13.25, 13, 13.75], "rotation": 90, "texture": "#0"},
				"down": {"uv": [0, 0, 0.25, 0.25], "texture": "#missing"}
			}
		}
	],
	"display": {
		"thirdperson_righthand": {
			"translation": [0, 1.5, 0.75],
			"scale": [0.2, 0.2, 0.2]
		},
		"thirdperson_lefthand": {
			"translation": [0, 1.5, 0.75],
			"scale": [0.2, 0.2, 0.2]
		},
		"firstperson_righthand": {
			"rotation": [101, -180, -114],
			"translation": [-2.75, 3, 1],
			"scale": [0.4, 0.4, 0.4]
		},
		"firstperson_lefthand": {
			"rotation": [101, -180, -114],
			"translation": [-2.75, 3, 1],
			"scale": [0.4, 0.4, 0.4]
		},
		"ground": {
			"translation": [0, 0.25, 0],
			"scale": [0.2, 0.2, 0.2]
		},
		"gui": {
			"rotation": [20, -140, 0],
			"translation": [0.25, -1.5, 0],
			"scale": [0.4, 0.4, 0.4]
		},
		"head": {
			"rotation": [-75, 0, 0],
			"translation": [-7.75, 21.25, -24.5],
			"scale": [4, 4, 4]
		},
		"fixed": {
			"rotation": [-90, 0, 0],
			"translation": [11.5, -0.5, -12.25],
			"scale": [2, 2, 2]
		}
	}
}