{
	"credit": "Made with Blockbench",
	"ambientocclusion": false,
	"texture_size": [64, 64],
	"textures": {
		"0": "./viburnum",
		"1": "./viburnum wf",
		"particle": "./viburnum"
	},
	"elements": [
		{
			"from": [-6, 0, 12],
			"to": [21.5, 21.5, 12],
			"rotation": {"angle": -45, "axis": "y", "origin": [7.75, 10.75, 8]},
			"faces": {
				"north": {"uv": [1.25, 1.25, 15, 12], "texture": "#0"},
				"east": {"uv": [1.25, 1.25, 15, 12], "texture": "#0"},
				"south": {"uv": [1.25, 1.25, 15, 12], "texture": "#0"},
				"west": {"uv": [1.25, 1.25, 15, 12], "texture": "#0"},
				"up": {"uv": [1.25, 1.25, 15, 12], "texture": "#0"},
				"down": {"uv": [1.25, 1.25, 15, 12], "texture": "#0"}
			}
		},
		{
			"from": [11.75, 0, -5.75],
			"to": [11.75, 21.5, 21.75],
			"rotation": {"angle": 0, "axis": "y", "origin": [7.75, 10.75, 8]},
			"faces": {
				"north": {"uv": [1.25, 1.25, 15, 12], "texture": "#0"},
				"east": {"uv": [1.25, 1.25, 15, 12], "texture": "#0"},
				"south": {"uv": [1.25, 1.25, 15, 12], "texture": "#0"},
				"west": {"uv": [1.25, 1.25, 15, 12], "texture": "#0"},
				"up": {"uv": [1.25, 1.25, 15, 12], "rotation": 90, "texture": "#0"},
				"down": {"uv": [1.25, 1.25, 15, 12], "rotation": 270, "texture": "#0"}
			}
		},
		{
			"from": [-6, 0, 11],
			"to": [21.5, 21.5, 11],
			"rotation": {"angle": 0, "axis": "y", "origin": [7.75, 10.75, 8]},
			"faces": {
				"north": {"uv": [1.25, 1.25, 15, 12], "texture": "#0"},
				"east": {"uv": [1.25, 1.25, 15, 12], "texture": "#0"},
				"south": {"uv": [1.25, 1.25, 15, 12], "texture": "#0"},
				"west": {"uv": [1.25, 1.25, 15, 12], "texture": "#0"},
				"up": {"uv": [1.25, 1.25, 15, 12], "rotation": 180, "texture": "#0"},
				"down": {"uv": [1.25, 1.25, 15, 12], "rotation": 180, "texture": "#0"}
			}
		},
		{
			"from": [-6, 0, 2],
			"to": [21.5, 21.5, 2],
			"rotation": {"angle": 22.5, "axis": "y", "origin": [7.75, 10.75, 8]},
			"faces": {
				"north": {"uv": [1.25, 1.25, 15, 12], "texture": "#0"},
				"east": {"uv": [1.25, 1.25, 15, 12], "texture": "#0"},
				"south": {"uv": [1.25, 1.25, 15, 12], "texture": "#0"},
				"west": {"uv": [1.25, 1.25, 15, 12], "texture": "#0"},
				"up": {"uv": [1.25, 1.25, 15, 12], "rotation": 180, "texture": "#0"},
				"down": {"uv": [1.25, 1.25, 15, 12], "rotation": 180, "texture": "#0"}
			}
		},
		{
			"from": [10.92157, -3.70711, -4.97183],
			"to": [10.92157, 17.79289, 22.52817],
			"rotation": {"angle": -45, "axis": "z", "origin": [8.92157, 5.04289, 5.27817]},
			"faces": {
				"north": {"uv": [1.25, 1.25, 15, 12], "texture": "#1"},
				"east": {"uv": [1.25, 1.25, 15, 12], "texture": "#1"},
				"south": {"uv": [1.25, 1.25, 15, 12], "texture": "#1"},
				"west": {"uv": [1.25, 1.25, 15, 12], "texture": "#1"},
				"up": {"uv": [1.25, 1.25, 15, 12], "texture": "#1"},
				"down": {"uv": [1.25, 1.25, 15, 12], "texture": "#1"}
			}
		},
		{
			"from": [-7.65685, -3.23223, 2.8033],
			"to": [19.84315, 18.26777, 2.8033],
			"rotation": {"angle": -45, "axis": "x", "origin": [8.92157, 5.04289, 5.27817]},
			"faces": {
				"north": {"uv": [1.25, 1.25, 15, 12], "texture": "#1"},
				"east": {"uv": [1.25, 1.25, 15, 12], "texture": "#1"},
				"south": {"uv": [1.25, 1.25, 15, 12], "texture": "#1"},
				"west": {"uv": [1.25, 1.25, 15, 12], "texture": "#1"},
				"up": {"uv": [1.25, 1.25, 15, 12], "texture": "#1"},
				"down": {"uv": [1.25, 1.25, 15, 12], "texture": "#1"}
			}
		},
		{
			"from": [3.75, -1.70711, -7.97183],
			"to": [3.75, 19.79289, 19.52817],
			"rotation": {"angle": 45, "axis": "z", "origin": [7.75, 5.04289, 12.77817]},
			"faces": {
				"north": {"uv": [1.25, 1.25, 15, 12], "texture": "#1"},
				"east": {"uv": [1.25, 1.25, 15, 12], "texture": "#1"},
				"south": {"uv": [1.25, 1.25, 15, 12], "texture": "#1"},
				"west": {"uv": [1.25, 1.25, 15, 12], "texture": "#1"},
				"up": {"uv": [1.25, 1.25, 15, 12], "texture": "#1"},
				"down": {"uv": [1.25, 1.25, 15, 12], "texture": "#1"}
			}
		},
		{
			"from": [-6, 0, 11],
			"to": [21.5, 21.5, 11],
			"rotation": {"angle": 45, "axis": "x", "origin": [7.75, 5.75, 5]},
			"faces": {
				"north": {"uv": [1.25, 1.25, 15, 12], "texture": "#1"},
				"east": {"uv": [1.25, 1.25, 15, 12], "texture": "#1"},
				"south": {"uv": [1.25, 1.25, 15, 12], "texture": "#1"},
				"west": {"uv": [1.25, 1.25, 15, 12], "texture": "#1"},
				"up": {"uv": [1.25, 1.25, 15, 12], "texture": "#1"},
				"down": {"uv": [1.25, 1.25, 15, 12], "texture": "#1"}
			}
		},
		{
			"from": [3.17365, 2.03243, -4.97183],
			"to": [24.67365, 2.03243, 22.52817],
			"rotation": {"angle": 22.5, "axis": "z", "origin": [13.92365, 2.03243, 8.77817]},
			"faces": {
				"north": {"uv": [1.25, 1.25, 15, 12], "rotation": 270, "texture": "#1"},
				"east": {"uv": [1.25, 1.25, 15, 12], "rotation": 90, "texture": "#1"},
				"south": {"uv": [1.25, 1.25, 15, 12], "rotation": 90, "texture": "#1"},
				"west": {"uv": [1.25, 1.25, 15, 12], "rotation": 90, "texture": "#1"},
				"up": {"uv": [1.25, 1.25, 15, 12], "rotation": 90, "texture": "#1"},
				"down": {"uv": [1.25, 1.25, 15, 12], "rotation": 90, "texture": "#1"}
			}
		},
		{
			"from": [-10.8155, 0.44329, -6.46766],
			"to": [10.6845, 0.44329, 21.03234],
			"rotation": {"angle": -22.5, "axis": "z", "origin": [3.67261, 2.5272, 4.03026]},
			"faces": {
				"north": {"uv": [1.25, 1.25, 15, 12], "rotation": 90, "texture": "#1"},
				"east": {"uv": [1.25, 1.25, 15, 12], "rotation": 90, "texture": "#1"},
				"south": {"uv": [1.25, 1.25, 15, 12], "rotation": 270, "texture": "#1"},
				"west": {"uv": [1.25, 1.25, 15, 12], "rotation": 90, "texture": "#1"},
				"up": {"uv": [1.25, 1.25, 15, 12], "rotation": 270, "texture": "#1"},
				"down": {"uv": [1.25, 1.25, 15, 12], "rotation": 270, "texture": "#1"}
			}
		},
		{
			"from": [-8.32843, -0.95711, 4.52817],
			"to": [19.17157, -0.95711, 26.02817],
			"rotation": {"angle": -22.5, "axis": "x", "origin": [8.92157, 1.04289, 5.27817]},
			"faces": {
				"north": {"uv": [1.25, 1.25, 15, 12], "rotation": 90, "texture": "#1"},
				"east": {"uv": [1.25, 1.25, 15, 12], "rotation": 270, "texture": "#1"},
				"south": {"uv": [1.25, 1.25, 15, 12], "rotation": 90, "texture": "#1"},
				"west": {"uv": [1.25, 1.25, 15, 12], "rotation": 90, "texture": "#1"},
				"up": {"uv": [1.25, 1.25, 15, 12], "rotation": 180, "texture": "#1"},
				"down": {"uv": [1.25, 1.25, 15, 12], "texture": "#1"}
			}
		},
		{
			"from": [-5.82635, 1.73979, -9.91362],
			"to": [21.67365, 1.73979, 11.58638],
			"rotation": {"angle": 22.5, "axis": "x", "origin": [3.67261, 2.5272, 4.03026]},
			"faces": {
				"north": {"uv": [1.25, 1.25, 15, 12], "rotation": 90, "texture": "#1"},
				"east": {"uv": [1.25, 1.25, 15, 12], "rotation": 90, "texture": "#1"},
				"south": {"uv": [1.25, 1.25, 15, 12], "rotation": 90, "texture": "#1"},
				"west": {"uv": [1.25, 1.25, 15, 12], "rotation": 270, "texture": "#1"},
				"up": {"uv": [1.25, 1.25, 15, 12], "texture": "#1"},
				"down": {"uv": [1.25, 1.25, 15, 12], "rotation": 180, "texture": "#1"}
			}
		}
	],
	"display": {
		"thirdperson_righthand": {
			"translation": [0, 1.5, 0.75],
			"scale": [0.2, 0.2, 0.2]
		},
		"thirdperson_lefthand": {
			"translation": [0, 1.5, 0.75],
			"scale": [0.2, 0.2, 0.2]
		},
		"firstperson_righthand": {
			"translation": [0, 1.5, 0.75],
			"scale": [0.3, 0.3, 0.3]
		},
		"firstperson_lefthand": {
			"translation": [0, 1.5, 0.75],
			"scale": [0.3, 0.3, 0.3]
		},
		"ground": {
			"translation": [0, 0.25, 0],
			"scale": [0.2, 0.2, 0.2]
		},
		"gui": {
			"rotation": [20, -140, 0],
			"translation": [0, -1.5, 0],
			"scale": [0.4, 0.4, 0.4]
		},
		"head": {
			"translation": [0, 13.5, -1]
		},
		"fixed": {
			"rotation": [-90, 0, 0],
			"translation": [0, -2, -15],
			"scale": [2, 2, 2]
		}
	},
	"groups": [
		{
			"name": "center",
			"origin": [7.75, 10.75, 8],
			"children": [0, 1, 2, 3]
		},
		{
			"name": "45",
			"origin": [7.75, 10.75, 5],
			"children": [4, 5, 6, 7]
		},
		{
			"name": "22",
			"origin": [7.75, 10.75, 5],
			"children": [8, 9, 10, 11]
		}
	]
}