{
	"credit": "Made with Blockbench",
	"ambientocclusion": false,
	"texture_size": [64, 64],
	"textures": {
		"0": "./sheep sorrel",
		"particle": "./sheep sorrel"
	},
	"elements": [
		{
			"from": [3, 0, 5],
			"to": [20.5, 14.5, 5],
			"rotation": {"angle": -45, "axis": "y", "origin": [6, 5, 2]},
			"faces": {
				"north": {"uv": [3.75, 8.75, 12.5, 16], "texture": "#0"},
				"east": {"uv": [3.75, 8.75, 12.5, 16], "texture": "#0"},
				"south": {"uv": [3.75, 8.75, 12.5, 16], "texture": "#0"},
				"west": {"uv": [3.75, 8.75, 12.5, 16], "texture": "#0"},
				"up": {"uv": [3.75, 8.75, 12.5, 16], "texture": "#0"},
				"down": {"uv": [3.75, 8.75, 12.5, 16], "texture": "#0"}
			}
		},
		{
			"from": [-0.87868, 0, 8.36396],
			"to": [16.62132, 4, 8.36396],
			"rotation": {"angle": 0, "axis": "y", "origin": [8.12132, 5, 8.36396]},
			"faces": {
				"north": {"uv": [3.75, 5.25, 12.5, 7.25], "texture": "#0"},
				"east": {"uv": [3.75, 5.25, 12.5, 7.25], "texture": "#0"},
				"south": {"uv": [3.75, 5.25, 12.5, 7.25], "texture": "#0"},
				"west": {"uv": [3.75, 5.25, 12.5, 7.25], "texture": "#0"},
				"up": {"uv": [3.75, 5.25, 12.5, 7.25], "texture": "#0"},
				"down": {"uv": [3.75, 5.25, 12.5, 7.25], "texture": "#0"}
			}
		},
		{
			"from": [12, 0, -3],
			"to": [12, 14.5, 14.5],
			"rotation": {"angle": -45, "axis": "y", "origin": [6, 5, 2]},
			"faces": {
				"north": {"uv": [3.75, 8.75, 12.5, 16], "texture": "#0"},
				"east": {"uv": [3.75, 8.75, 12.5, 16], "texture": "#0"},
				"south": {"uv": [3.75, 8.75, 12.5, 16], "texture": "#0"},
				"west": {"uv": [3.75, 8.75, 12.5, 16], "texture": "#0"},
				"up": {"uv": [3.75, 8.75, 12.5, 16], "texture": "#0"},
				"down": {"uv": [3.75, 8.75, 12.5, 16], "texture": "#0"}
			}
		},
		{
			"from": [8.12132, 0, -0.63604],
			"to": [8.12132, 4, 16.86396],
			"rotation": {"angle": 0, "axis": "y", "origin": [8.12132, 5, 8.36396]},
			"faces": {
				"north": {"uv": [3.75, 5.25, 12.5, 7.25], "texture": "#0"},
				"east": {"uv": [3.75, 5.25, 12.5, 7.25], "texture": "#0"},
				"south": {"uv": [3.75, 5.25, 12.5, 7.25], "texture": "#0"},
				"west": {"uv": [3.75, 5.25, 12.5, 7.25], "texture": "#0"},
				"up": {"uv": [3.75, 5.25, 12.5, 7.25], "texture": "#0"},
				"down": {"uv": [3.75, 5.25, 12.5, 7.25], "texture": "#0"}
			}
		}
	],
	"display": {
		"thirdperson_righthand": {
			"translation": [0, 0.5, 0.75],
			"scale": [0.2, 0.2, 0.2]
		},
		"thirdperson_lefthand": {
			"translation": [0, 0.5, 0.75],
			"scale": [0.2, 0.2, 0.2]
		},
		"firstperson_righthand": {
			"rotation": [101, 78, -114],
			"translation": [0.25, 3.5, 1],
			"scale": [0.4, 0.4, 0.4]
		},
		"firstperson_lefthand": {
			"rotation": [101, 78, -114],
			"translation": [0.25, 3.5, 1],
			"scale": [0.4, 0.4, 0.4]
		},
		"ground": {
			"translation": [0, 0.25, 0],
			"scale": [0.2, 0.2, 0.2]
		},
		"gui": {
			"rotation": [20, -140, 0],
			"translation": [0.25, 0, 0],
			"scale": [0.4, 0.4, 0.4]
		},
		"head": {
			"translation": [0, 13.5, -1]
		},
		"fixed": {
			"rotation": [-90, 10, 0],
			"translation": [0, -2, -15],
			"scale": [2, 2, 2]
		}
	}
}