{
	"credit": "Made with Blockbench",
	"texture_size": [64, 64],
	"textures": {
		"0": "./arbutus",
		"particle": "./arbutus"
	},
	"elements": [
		{
			"from": [-1, 0, 9],
			"to": [20.5, 21.5, 9],
			"faces": {
				"north": {"uv": [2.75, 5.25, 13.5, 16], "texture": "#0"},
				"east": {"uv": [2.75, 5.25, 13.5, 16], "texture": "#0"},
				"south": {"uv": [2.75, 5.25, 13.5, 16], "texture": "#0"},
				"west": {"uv": [2.75, 5.25, 13.5, 16], "texture": "#0"},
				"up": {"uv": [2.75, 5.25, 13.5, 16], "texture": "#0"},
				"down": {"uv": [2.75, 5.25, 13.5, 16], "texture": "#0"}
			}
		},
		{
			"from": [9.75, 0, -1.75],
			"to": [9.75, 21.5, 19.75],
			"rotation": {"angle": 45, "axis": "y", "origin": [9.75, 10.75, 9]},
			"faces": {
				"north": {"uv": [2.75, 5.25, 13.5, 16], "texture": "#0"},
				"east": {"uv": [2.75, 5.25, 13.5, 16], "texture": "#0"},
				"south": {"uv": [2.75, 5.25, 13.5, 16], "texture": "#0"},
				"west": {"uv": [2.75, 5.25, 13.5, 16], "texture": "#0"},
				"up": {"uv": [2.75, 5.25, 13.5, 16], "rotation": 90, "texture": "#0"},
				"down": {"uv": [2.75, 5.25, 13.5, 16], "rotation": 270, "texture": "#0"}
			}
		},
		{
			"from": [10.25, 0, -1.75],
			"to": [10.25, 21.5, 19.75],
			"rotation": {"angle": 0, "axis": "y", "origin": [6.25, 10.75, 9]},
			"faces": {
				"north": {"uv": [13.5, 5.25, 2.75, 16], "texture": "#0"},
				"east": {"uv": [13.5, 5.25, 2.75, 16], "texture": "#0"},
				"south": {"uv": [13.5, 5.25, 2.75, 16], "texture": "#0"},
				"west": {"uv": [13.5, 5.25, 2.75, 16], "texture": "#0"},
				"up": {"uv": [2.75, 16, 13.5, 5.25], "rotation": 90, "texture": "#0"},
				"down": {"uv": [2.75, 16, 13.5, 5.25], "rotation": 270, "texture": "#0"}
			}
		},
		{
			"from": [-1, 0, 9],
			"to": [20.5, 21.5, 9],
			"rotation": {"angle": 45, "axis": "y", "origin": [9.75, 10.75, 9]},
			"faces": {
				"north": {"uv": [2.75, 5.25, 13.5, 16], "texture": "#0"},
				"east": {"uv": [2.75, 5.25, 13.5, 16], "texture": "#0"},
				"south": {"uv": [2.75, 5.25, 13.5, 16], "texture": "#0"},
				"west": {"uv": [2.75, 5.25, 13.5, 16], "texture": "#0"},
				"up": {"uv": [2.75, 5.25, 13.5, 16], "rotation": 180, "texture": "#0"},
				"down": {"uv": [2.75, 5.25, 13.5, 16], "rotation": 180, "texture": "#0"}
			}
		},
		{
			"from": [-4.5, 2, 15],
			"to": [17, 23.5, 15],
			"rotation": {"angle": 45, "axis": "x", "origin": [6.25, 10.75, 9]},
			"faces": {
				"north": {"uv": [13.5, 5.25, 2.75, 16], "texture": "#0"},
				"east": {"uv": [13.5, 5.25, 2.75, 16], "texture": "#0"},
				"south": {"uv": [13.5, 5.25, 2.75, 16], "texture": "#0"},
				"west": {"uv": [13.5, 5.25, 2.75, 16], "texture": "#0"},
				"up": {"uv": [13.5, 5.25, 2.75, 16], "rotation": 180, "texture": "#0"},
				"down": {"uv": [13.5, 5.25, 2.75, 16], "rotation": 180, "texture": "#0"}
			}
		},
		{
			"from": [-1, 1.75, 2.25],
			"to": [20.5, 1.75, 23.75],
			"rotation": {"angle": -22.5, "axis": "x", "origin": [9.75, 7.75, 9]},
			"faces": {
				"north": {"uv": [2.75, 5.25, 13.5, 16], "texture": "#0"},
				"east": {"uv": [2.75, 5.25, 13.5, 16], "rotation": 270, "texture": "#0"},
				"south": {"uv": [2.75, 5.25, 13.5, 16], "rotation": 180, "texture": "#0"},
				"west": {"uv": [2.75, 5.25, 13.5, 16], "rotation": 90, "texture": "#0"},
				"up": {"uv": [2.75, 5.25, 13.5, 16], "rotation": 180, "texture": "#0"},
				"down": {"uv": [2.75, 5.25, 13.5, 16], "texture": "#0"}
			}
		},
		{
			"from": [-0.84315, -0.70711, 4.53553],
			"to": [20.65685, 20.79289, 4.53553],
			"rotation": {"angle": -45, "axis": "x", "origin": [4.07843, 7.92157, 6.65685]},
			"faces": {
				"north": {"uv": [13.5, 5.25, 2.75, 16], "texture": "#0"},
				"east": {"uv": [13.5, 5.25, 2.75, 16], "texture": "#0"},
				"south": {"uv": [13.5, 5.25, 2.75, 16], "texture": "#0"},
				"west": {"uv": [13.5, 5.25, 2.75, 16], "texture": "#0"},
				"up": {"uv": [13.5, 5.25, 2.75, 16], "texture": "#0"},
				"down": {"uv": [13.5, 5.25, 2.75, 16], "texture": "#0"}
			}
		},
		{
			"from": [-1.65685, 2.80025, -6.21447],
			"to": [19.84315, 2.80025, 15.28553],
			"rotation": {"angle": 22.5, "axis": "x", "origin": [11.92157, 4.92157, 6.65685]},
			"faces": {
				"north": {"uv": [2.75, 5.25, 13.5, 16], "rotation": 180, "texture": "#0"},
				"east": {"uv": [2.75, 5.25, 13.5, 16], "rotation": 90, "texture": "#0"},
				"south": {"uv": [2.75, 5.25, 13.5, 16], "texture": "#0"},
				"west": {"uv": [2.75, 5.25, 13.5, 16], "rotation": 270, "texture": "#0"},
				"up": {"uv": [2.75, 5.25, 13.5, 16], "texture": "#0"},
				"down": {"uv": [2.75, 5.25, 13.5, 16], "rotation": 180, "texture": "#0"}
			}
		},
		{
			"from": [5.75, 1.17157, -2.09315],
			"to": [5.75, 22.67157, 19.40685],
			"rotation": {"angle": 45, "axis": "z", "origin": [9.75, 7.92157, 14.65685]},
			"faces": {
				"north": {"uv": [2.75, 5.25, 13.5, 16], "texture": "#0"},
				"east": {"uv": [2.75, 5.25, 13.5, 16], "texture": "#0"},
				"south": {"uv": [2.75, 5.25, 13.5, 16], "texture": "#0"},
				"west": {"uv": [2.75, 5.25, 13.5, 16], "texture": "#0"},
				"up": {"uv": [2.75, 5.25, 13.5, 16], "rotation": 270, "texture": "#0"},
				"down": {"uv": [2.75, 5.25, 13.5, 16], "rotation": 90, "texture": "#0"}
			}
		},
		{
			"from": [-5, 1.92157, -2.09315],
			"to": [16.5, 1.92157, 19.40685],
			"rotation": {"angle": -22.5, "axis": "z", "origin": [9.75, 4.92157, 14.65685]},
			"faces": {
				"north": {"uv": [2.75, 5.25, 13.5, 16], "rotation": 90, "texture": "#0"},
				"east": {"uv": [2.75, 5.25, 13.5, 16], "texture": "#0"},
				"south": {"uv": [2.75, 5.25, 13.5, 16], "rotation": 270, "texture": "#0"},
				"west": {"uv": [2.75, 5.25, 13.5, 16], "rotation": 180, "texture": "#0"},
				"up": {"uv": [2.75, 5.25, 13.5, 16], "rotation": 270, "texture": "#0"},
				"down": {"uv": [2.75, 5.25, 13.5, 16], "rotation": 270, "texture": "#0"}
			}
		},
		{
			"from": [13.92157, -0.82843, -1.09315],
			"to": [13.92157, 20.67157, 20.40685],
			"rotation": {"angle": -45, "axis": "z", "origin": [11.92157, 7.92157, 6.65685]},
			"faces": {
				"north": {"uv": [2.75, 5.25, 13.5, 16], "texture": "#0"},
				"east": {"uv": [2.75, 5.25, 13.5, 16], "texture": "#0"},
				"south": {"uv": [2.75, 5.25, 13.5, 16], "texture": "#0"},
				"west": {"uv": [2.75, 5.25, 13.5, 16], "texture": "#0"},
				"up": {"uv": [2.75, 5.25, 13.5, 16], "rotation": 90, "texture": "#0"},
				"down": {"uv": [2.75, 5.25, 13.5, 16], "rotation": 270, "texture": "#0"}
			}
		},
		{
			"from": [3.17157, 2.92157, -1.09315],
			"to": [24.67157, 2.92157, 20.40685],
			"rotation": {"angle": 22.5, "axis": "z", "origin": [11.92157, 4.92157, 6.65685]},
			"faces": {
				"north": {"uv": [2.75, 5.25, 13.5, 16], "rotation": 270, "texture": "#0"},
				"east": {"uv": [2.75, 5.25, 13.5, 16], "rotation": 180, "texture": "#0"},
				"south": {"uv": [2.75, 5.25, 13.5, 16], "rotation": 90, "texture": "#0"},
				"west": {"uv": [2.75, 5.25, 13.5, 16], "texture": "#0"},
				"up": {"uv": [2.75, 5.25, 13.5, 16], "rotation": 90, "texture": "#0"},
				"down": {"uv": [2.75, 5.25, 13.5, 16], "rotation": 90, "texture": "#0"}
			}
		}
	],
	"display": {
		"thirdperson_righthand": {
			"translation": [0, 1.25, 0.75],
			"scale": [0.2, 0.2, 0.2]
		},
		"thirdperson_lefthand": {
			"translation": [0, 1.25, 0.75],
			"scale": [0.2, 0.2, 0.2]
		},
		"firstperson_righthand": {
			"rotation": [101, 78, -114],
			"translation": [0.25, 3.75, 1],
			"scale": [0.4, 0.4, 0.4]
		},
		"firstperson_lefthand": {
			"rotation": [101, 78, -114],
			"translation": [0.25, 3.75, 1],
			"scale": [0.4, 0.4, 0.4]
		},
		"ground": {
			"translation": [0, 0.25, 0],
			"scale": [0.2, 0.2, 0.2]
		},
		"gui": {
			"rotation": [20, -140, 0],
			"translation": [0.25, -1.5, 0],
			"scale": [0.4, 0.4, 0.4]
		},
		"head": {
			"translation": [0, 13.5, -1]
		},
		"fixed": {
			"rotation": [-90, 30, 0],
			"translation": [-2.5, -2, -15],
			"scale": [2, 2, 2]
		}
	}
}